{
    "3UpzUv": {
        "firstname": "Chris",
        "lastname": "Case",
        "admin": true,
        "username": "ccase",
        "age": 33,
        "settings": {
            "displayEmail": false
        },
        "email": "ccase@example.com",
        "id": "3UpzUv"
    },
    "1TQxtO": {
        "firstname": "Laura",
        "lastname": "Hutton",
        "admin": true,
        "username": "lhutton",
        "age": 24,
        "settings": {
            "displayEmail": true
        },
        "email": "lhutton@example.com",
        "id": "1TQxtO"
    },
    "1mI4Vb": {
        "firstname": "Bob",
        "lastname": "Dole",
        "admin": false,
        "username": "bdole",
        "age": 87,
        "settings": {
            "displayEmail": true
        },
        "email": "bdole@example.com",
        "id": "1mI4Vb"
    },
    "31xYhi": {
        "firstname": "Foo",
        "lastname": "Bar",
        "admin": false,
        "username": "fbar",
        "age": 1007,
        "settings": {
            "displayEmail": false
        },
        "email": "fbar@example.com",
        "id": "31xYhi"
    },
    "qu0zZ": {
        "firstname": "Dude",
        "lastname": "Bro",
        "admin": false,
        "username": "dbro",
        "age": 17,
        "settings": {
            "displayEmail": true
        },
        "email": "dbro@example.com",
        "id": "qu0zZ"
    }
}